<?xml version="1.0" encoding="utf-8"?>
<!-- Generator: Adobe Illustrator 21.0.2, SVG Export Plug-In . SVG Version: 6.00 Build 0)  -->
<svg version="1.1" id="Layer_1" xmlns="http://www.w3.org/2000/svg" xmlns:xlink="http://www.w3.org/1999/xlink" x="0px" y="0px"
	 viewBox="0 0 37.1 37.1" style="enable-background:new 0 0 37.1 37.1;" xml:space="preserve">
<style type="text/css">
	.st0{fill:none;}
</style>
<g>
	<path class="st0" d="M6.4,23.4c0,0.1,0.1,0.2,0.1,0.3c0.2,0.4,0.3,0.7,0.5,1c0,0.1,0.1,0.1,0.1,0.2c0.2,0.3,0.3,0.5,0.5,0.8
		c0.1,0.1,0.1,0.2,0.2,0.3c0.1,0.1,0.2,0.3,0.3,0.4l8-15c0.5-0.9,1.4-1.4,2.4-1.4c1,0,1.9,0.6,2.4,1.4l3.1,5.8c0,0,0,0,0,0l4.9,9.2
		l0,0c1.7-2.3,2.7-5,2.7-7.9c0-7.2-5.9-13.1-13.1-13.1c-7.2,0-13.1,5.9-13.1,13.1C5.5,20.2,5.8,21.9,6.4,23.4z"/>
	<path d="M32.3,30.9c0.1-0.1,0.2-0.2,0.3-0.4c0.2-0.3,0.4-0.5,0.6-0.8c0.1-0.1,0.2-0.2,0.3-0.4c0.3-0.4,0.5-0.7,0.7-1.1
		c0,0,0.1-0.1,0.1-0.1c0,0,0,0,0,0c1.8-2.9,2.7-6.2,2.7-9.7C37.1,8.3,28.8,0,18.5,0C8.3,0,0,8.3,0,18.5c0,2.7,0.6,5.2,1.6,7.5l0,0
		c0.1,0.3,0.3,0.5,0.4,0.8c0.1,0.2,0.2,0.4,0.3,0.6c0.2,0.3,0.4,0.7,0.6,1c0.1,0.2,0.2,0.3,0.3,0.5c0.6,1,1.4,1.8,2.2,2.7L4.6,33
		c-0.7,1.3-0.2,3,1.1,3.7c0.4,0.2,0.8,0.3,1.3,0.3c1,0,1.9-0.5,2.4-1.4l0.4-0.7c0,0,0,0,0,0l0,0c0.4,0.2,0.9,0.5,1.4,0.7
		c0.1,0,0.2,0.1,0.3,0.1c0.5,0.2,1,0.4,1.5,0.6c0,0,0.1,0,0.2,0c0.5,0.1,1,0.3,1.5,0.4c0.1,0,0.2,0,0.3,0.1c0.3,0.1,0.5,0.1,0.8,0.1
		l0,0c0.9,0.1,1.9,0.2,2.8,0.2c1.5,0,2.7-1.2,2.7-2.7c0-1.5-1.2-2.7-2.7-2.7l0,0c0,0,0,0-0.1,0c-0.5,0-1,0-1.5-0.1
		c-0.1,0-0.3,0-0.4-0.1c-0.4-0.1-0.7-0.1-1.1-0.2c-0.2,0-0.3-0.1-0.5-0.1c-0.3-0.1-0.6-0.2-0.9-0.3c-0.2-0.1-0.3-0.1-0.5-0.2
		c-0.4-0.1-0.7-0.3-1-0.5c-0.1,0-0.2-0.1-0.2-0.1l6.2-11.5l7.3,13.7c0.4,0.7,1.1,1.2,1.8,1.4c0.2,0,0.4,0.1,0.6,0.1
		c0.6,0,1.2-0.2,1.7-0.6c0.1-0.1,0.2-0.2,0.3-0.2c0.3-0.2,0.5-0.4,0.7-0.6c0.1-0.1,0.3-0.3,0.4-0.4C31.7,31.6,32,31.3,32.3,30.9z
		 M18.5,5.5c7.2,0,13.1,5.9,13.1,13.1c0,2.9-0.9,5.7-2.7,7.9l0,0L24,17.2c0,0,0,0,0,0l-3.1-5.8c-0.5-0.9-1.4-1.4-2.4-1.4
		c-1,0-1.9,0.6-2.4,1.4l-8,15C8,26.3,7.9,26.2,7.8,26c-0.1-0.1-0.1-0.2-0.2-0.3c-0.2-0.3-0.3-0.5-0.5-0.8c0-0.1-0.1-0.1-0.1-0.2
		c-0.2-0.3-0.4-0.7-0.5-1c0-0.1-0.1-0.2-0.1-0.3c-0.6-1.5-0.9-3.1-0.9-4.8C5.5,11.3,11.3,5.5,18.5,5.5z" fill="#FFF"/>
</g>
</svg>
